<?xml version="1.0" encoding="UTF-8" standalone="no"?>
<svg
   fill="none"
   height="24"
   viewBox="0 0 24 24"
   width="24"
   version="1.1"
   id="svg4"
   sodipodi:docname="arrow-down-white.svg"
   inkscape:version="1.1.2 (0a00cf5339, 2022-02-04)"
   xmlns:inkscape="http://www.inkscape.org/namespaces/inkscape"
   xmlns:sodipodi="http://sodipodi.sourceforge.net/DTD/sodipodi-0.dtd"
   xmlns="http://www.w3.org/2000/svg"
   xmlns:svg="http://www.w3.org/2000/svg">
  <defs
     id="defs8" />
  <sodipodi:namedview
     id="namedview6"
     pagecolor="#ffffff"
     bordercolor="#666666"
     borderopacity="1.0"
     inkscape:pageshadow="2"
     inkscape:pageopacity="0.0"
     inkscape:pagecheckerboard="0"
     showgrid="false"
     inkscape:zoom="32.458333"
     inkscape:cx="11.984596"
     inkscape:cy="12"
     inkscape:window-width="1920"
     inkscape:window-height="1011"
     inkscape:window-x="0"
     inkscape:window-y="0"
     inkscape:window-maximized="1"
     inkscape:current-layer="svg4" />
  <path
     d="m11.9995 16.8001c-.7 0-1.4-.27-1.93-.8l-6.51997-6.51996c-.29-.29-.29-.77 0-1.06s.77-.29 1.06 0l6.51997 6.51996c.48.48 1.26.48 1.74 0l6.52-6.51996c.29-.29.77-.29 1.06 0s.29.77 0 1.06l-6.52 6.51996c-.53.53-1.23.8-1.93.8z"
     fill="#292d32"
     id="path2" />
  <path
     style="fill:#ffffff;stroke-width:0.0308087"
     d="m 11.548627,16.742571 c -0.129642,-0.02346 -0.349805,-0.0843 -0.489251,-0.135187 -0.557678,-0.203527 -0.420874,-0.0782 -4.151248,-3.803025 C 4.5794757,10.479171 3.4603982,9.3410826 3.4190393,9.2559982 3.3360407,9.0852516 3.3375584,8.8116728 3.4224774,8.6362536 3.5914732,8.2871548 4.0212147,8.1307136 4.3748395,8.2895599 c 0.1078842,0.048461 0.8904302,0.812754 3.5275995,3.4453181 2.726766,2.722004 3.417683,3.396068 3.535957,3.449708 0.347034,0.157388 0.739523,0.163331 1.077472,0.01632 0.181119,-0.07879 0.396952,-0.287679 3.581693,-3.466455 2.63685,-2.6319098 3.419728,-3.396432 3.527599,-3.4448871 0.475285,-0.2134953 1.016689,0.1381656 1.016689,0.6603759 0,0.314149 0.185872,0.1119519 -3.478546,3.7840582 -3.722516,3.730325 -3.654875,3.668186 -4.212692,3.870028 -0.490847,0.17761 -0.940566,0.222052 -1.401984,0.138549 z"
     id="path862" />
</svg>
