<?xml version="1.0" encoding="UTF-8" standalone="no"?>
<svg
   fill="none"
   height="24"
   viewBox="0 0 24 24"
   width="24"
   version="1.1"
   id="svg4"
   sodipodi:docname="white-website.svg"
   inkscape:version="1.1.2 (0a00cf5339, 2022-02-04)"
   xmlns:inkscape="http://www.inkscape.org/namespaces/inkscape"
   xmlns:sodipodi="http://sodipodi.sourceforge.net/DTD/sodipodi-0.dtd"
   xmlns="http://www.w3.org/2000/svg"
   xmlns:svg="http://www.w3.org/2000/svg">
  <defs
     id="defs8" />
  <sodipodi:namedview
     id="namedview6"
     pagecolor="#ffffff"
     bordercolor="#666666"
     borderopacity="1.0"
     inkscape:pageshadow="2"
     inkscape:pageopacity="0.0"
     inkscape:pagecheckerboard="0"
     showgrid="false"
     inkscape:zoom="32.458333"
     inkscape:cx="11.984596"
     inkscape:cy="9.5353017"
     inkscape:window-width="1920"
     inkscape:window-height="1011"
     inkscape:window-x="0"
     inkscape:window-y="0"
     inkscape:window-maximized="1"
     inkscape:current-layer="svg4" />
  <path
     d="m8 12h-.75zm8 0h.75zm-4 4v.75zm2.0694 5.7856.1544.7339zm-4.1388 0-.15444.7339zm-7.19199-13.56441-.69432-.28358zm-.52423 5.84821-.73393.1544zm7.71622-11.85502-.15444-.73393zm4.1388 0 .1544-.73392zm7.1114 6.0429.2177.71771zm-18.36283-.00036.2177-.71771zm17.75013.25039c.4394 1.07668.6819 2.25539.6819 3.49269h1.5c0-1.4349-.2815-2.80593-.7931-4.05945zm.6819 3.49269c0 .6573-.0684 1.2978-.1983 1.915l1.4678.3088c.1512-.7181.2305-1.4621.2305-2.2238zm-.1983 1.915c-.7515 3.5712-3.5655 6.3852-7.1367 7.1367l.3088 1.4678c4.1532-.8739 7.4218-4.1425 8.2957-8.2957zm-7.1367 7.1367c-.6172.1299-1.2577.1983-1.915.1983v1.5c.7617 0 1.5057-.0793 2.2238-.2305zm-1.915.1983c-.6573 0-1.2978-.0684-1.915-.1983l-.30884 1.4678c.71814.1512 1.46214.2305 2.22384.2305zm-9.25-9.25c0-1.2382.24289-2.41785.68293-3.49522l-1.38864-.56717c-.51231 1.25432-.79429 2.62639-.79429 4.06239zm7.335 9.0517c-3.57118-.7515-6.38524-3.5655-7.13669-7.1367l-1.46786.3088c.8739 4.1532 4.1426 7.4218 8.29571 8.2957zm-7.13669-7.1367c-.12987-.6172-.19831-1.2577-.19831-1.915h-1.5c0 .7617.07934 1.5057.23045 2.2238zm.48462-5.41022c1.14531-2.80414 3.62793-4.92012 6.65207-5.55647l-.30884-1.46786c-3.5188.74043-6.4013 3.19945-7.73187 6.45716zm6.65207-5.55647c.6172-.12987 1.2577-.19831 1.915-.19831v-1.5c-.7617 0-1.5057.07934-2.22384.23045zm1.915-.19831c.6573 0 1.2978.06844 1.915.19831l.3088-1.46785c-.7181-.15112-1.4621-.23046-2.2238-.23046zm1.915.19831c3.0251.63654 5.5083 2.75361 6.6531 5.559l1.3888-.56676c-1.33-3.25917-4.2132-5.71944-7.7331-6.46009zm-.5601-.50594c.2759.86475 1.2973 4.19068 1.7159 7.24648l1.4862-.20359c-.4373-3.19178-1.493-6.62119-1.7731-7.49886zm1.7159 7.24648c.1122.81895.1792 1.60545.1792 2.31115h1.5c0-.7944-.0749-1.6524-.193-2.51474zm5.8924-2.14929c-1.0975.33287-3.1589.91748-5.2854 1.30995l.2722 1.47509c2.2056-.40706 4.3273-1.00955 5.4485-1.34961zm-5.2854 1.30995c-1.29.23809-2.5781.40049-3.6778.40049v1.5c1.2292 0 2.6179-.1795 3.95-.4254zm-.4278 3.15049c0 1.0455-.1468 2.2621-.3664 3.4899l1.4766.264c.2272-1.2706.3898-2.5841.3898-3.7539zm-.3664 3.4899c-.4811 2.6912-1.2895 5.3181-1.5287 6.0677l1.429.456c.2455-.7693 1.0776-3.4704 1.5763-6.2597zm6.674-2.135c-.7496.2392-3.3765 1.0476-6.0677 1.5287l.264 1.4766c2.7893-.4987 5.4904-1.3308 6.2597-1.5763zm-6.0677 1.5287c-1.2278.2196-2.4444.3664-3.4899.3664v1.5c1.1698 0 2.4833-.1626 3.7539-.3898zm-3.4899.3664c-1.0455 0-2.26213-.1468-3.48993-.3664l-.26401 1.4766c1.27065.2272 2.58414.3898 3.75394.3898zm-3.48993-.3664c-2.69121-.4811-5.3181-1.2895-6.0677-1.5287l-.45597 1.429c.76928.2455 3.47044 1.0776 6.25966 1.5763zm-1.26007-2.8836c0 1.1698.16258 2.4833.38977 3.7539l1.47659-.264c-.21953-1.2278-.36636-2.4444-.36636-3.4899zm.38977 3.7539c.49871 2.7893 1.33086 5.4904 1.57632 6.2597l1.42901-.456c-.2392-.7496-1.04756-3.3765-1.52874-6.0677zm1.57632-13.7675c-.28005.87767-1.33579 4.30708-1.77305 7.49886l1.48612.20359c.41863-3.0558 1.44004-6.38173 1.71594-7.24648zm-1.77305 7.49886c-.11813.86234-.19304 1.72034-.19304 2.51474h1.5c0-.7057.06697-1.4922.17916-2.31115zm4.55696-.23526c-1.0997 0-2.38776-.1624-3.67778-.40049l-.27224 1.47509c1.33213.2459 2.72082.4254 3.95002.4254zm-3.67778-.40049c-2.12732-.39261-4.18936-.97749-5.28655-1.3103l-.4354 1.43542c1.12088.33999 3.24334.94277 5.44971 1.34997zm12.59468-1.2912c.0133-.00689.0291-.01355.0463-.01875l.4353 1.43543c.074-.02244.1436-.05117.2096-.08544zm-18.56958 1.30272c.07771.04753.16207.08603.25295.1136l.4354-1.43542c.03466.01051.06662.02527.09423.04215z"
     fill="#2d264b"
     id="path2" />
  <path
     style="fill:#ffffff;stroke-width:0.0308087"
     d="M 11.137356,22.703143 C 9.2970377,22.542349 7.5991117,21.949742 6.0693196,20.934306 4.827506,20.110023 3.8255082,19.100435 3.0118342,17.853659 1.3745958,15.344951 0.86212436,12.292614 1.5907429,9.3894796 1.9656243,7.895788 2.6671274,6.4901287 3.6551344,5.2528883 4.0021308,4.8183592 4.8184101,4.0019111 5.2481432,3.6595499 6.9158656,2.3309039 8.7487194,1.5709257 10.890886,1.3198316 c 0.43969,-0.051538 1.778538,-0.051538 2.218228,0 2.125374,0.2491257 4.005667,1.0277248 5.637998,2.3346032 0.434697,0.3480281 1.249682,1.1629044 1.598667,1.5984535 1.299438,1.6217604 2.085154,3.5192759 2.334559,5.6379977 0.05992,0.509055 0.05116,1.810238 -0.01577,2.341463 -0.259374,2.058606 -1.043227,3.922847 -2.318779,5.514763 -0.349902,0.436685 -1.165093,1.251541 -1.598672,1.598015 -1.575095,1.25866 -3.396534,2.036579 -5.387008,2.300738 -0.547961,0.07272 -1.704809,0.102532 -2.222748,0.05728 z m 2.033376,-1.507634 c 0.152503,-0.02058 0.29374,-0.05306 0.313861,-0.07218 0.03553,-0.03376 0.208274,-0.599594 0.471478,-1.544386 0.251803,-0.903868 0.761642,-3.023271 0.73385,-3.050619 -0.0053,-0.0052 -0.155133,0.0096 -0.333053,0.03294 -0.97467,0.127597 -1.342824,0.150853 -2.372272,0.149855 -1.027052,-9.95e-4 -1.360547,-0.0224 -2.3254673,-0.149227 -0.1860671,-0.02446 -0.34296,-0.03981 -0.3486507,-0.03412 -0.015825,0.01582 0.2570173,1.214253 0.4456495,1.957461 0.2891545,1.139264 0.6980145,2.571338 0.7532275,2.638255 0.01585,0.0192 0.191356,0.05147 0.390023,0.07169 0.198667,0.02022 0.38894,0.04163 0.42283,0.04756 0.139861,0.02449 1.592005,-0.01262 1.848524,-0.04723 z M 8.7956195,20.557125 C 8.5453322,19.70857 8.1085297,17.976122 7.931451,17.129653 7.869417,16.833119 7.8025907,16.51451 7.7829486,16.421632 L 7.7472354,16.252765 7.5783675,16.217076 C 7.48549,16.197448 7.1322208,16.122912 6.7933248,16.051441 6.123458,15.910169 4.5515433,15.517967 3.7894737,15.30196 3.5268293,15.227515 3.3073129,15.170426 3.3016595,15.175096 c -0.023809,0.01967 0.234563,0.616949 0.4503479,1.041074 0.4388309,0.862522 0.996392,1.626729 1.7007427,2.33108 0.7327887,0.732789 1.5129221,1.29446 2.4188802,1.741517 0.4482538,0.221197 0.8693977,0.404915 0.9457078,0.412553 0.011795,0.0012 0.00202,-0.06371 -0.021719,-0.144195 z m 6.7627885,0.0015 c 0.710579,-0.290243 1.615254,-0.829051 2.265019,-1.349003 0.394373,-0.315585 1.070626,-0.991838 1.386211,-1.386211 0.379371,-0.474086 0.79551,-1.122545 1.060895,-1.653169 0.219554,-0.438987 0.450235,-0.977161 0.426936,-0.996033 -0.0052,-0.0042 -0.224298,0.05329 -0.486943,0.127735 -0.762069,0.216007 -2.333984,0.608209 -3.003851,0.749481 -0.338896,0.07147 -0.692165,0.146007 -0.785043,0.165635 l -0.168867,0.03569 -0.03571,0.168867 c -0.01964,0.09288 -0.08647,0.411487 -0.148502,0.708021 -0.177259,0.84733 -0.613989,2.579339 -0.864677,3.429182 -0.05141,0.174268 -0.07261,0.174279 0.354536,-1.85e-4 z m -1.833119,-5.398669 c 0.305006,-0.03667 0.713546,-0.09071 0.907866,-0.120089 l 0.353309,-0.05342 0.05342,-0.353309 c 0.190393,-1.259217 0.25981,-2.67566 0.18088,-3.690788 -0.02065,-0.265542 -0.04157,-0.486912 -0.0465,-0.491933 -0.0049,-0.005 -0.138866,0.01173 -0.297645,0.03723 -1.094348,0.175727 -2.083758,0.24554 -3.184708,0.224713 -0.900511,-0.01703 -1.337367,-0.05316 -2.3258344,-0.192335 -0.2964102,-0.04173 -0.5406587,-0.07588 -0.5427744,-0.07588 -0.00212,0 -0.021335,0.221217 -0.04271,0.491594 -0.080587,1.01937 -0.0121,2.430043 0.1794969,3.697233 l 0.053394,0.353141 0.2455037,0.03843 c 0.31732,0.04968 1.2104132,0.15871 1.5856842,0.193588 0.160975,0.01496 0.750192,0.02299 1.309371,0.01785 0.806027,-0.0074 1.131593,-0.02317 1.571245,-0.07602 z M 7.4759522,14.626444 C 7.4462058,14.506898 7.3355307,13.468172 7.302793,13.001284 7.2479966,12.219799 7.2635846,11.358275 7.3499341,10.395881 L 7.369469,10.178156 6.834927,10.06286 C 6.0919465,9.9026067 4.702096,9.5570431 3.9127086,9.3362979 3.5483954,9.2344212 3.2335781,9.1508703 3.2131146,9.1506297 3.1424604,9.1497994 2.9445861,9.9344534 2.8286417,10.675225 c -0.05663,0.36181 -0.067812,0.56538 -0.069385,1.263158 -0.0019,0.843034 0.047554,1.495131 0.1177249,1.5523 0.066973,0.05456 1.5803398,0.485998 2.6580097,0.757753 0.7003758,0.176613 1.8429526,0.442213 1.916359,0.44547 0.028218,0.0013 0.036232,-0.02072 0.024602,-0.06746 z m 9.5740288,-0.04066 c 1.344511,-0.29836 3.959749,-1.001282 4.073038,-1.094749 0.07041,-0.05809 0.119631,-0.709485 0.117331,-1.552655 -0.0019,-0.694052 -0.01338,-0.90328 -0.06939,-1.263158 -0.109209,-0.7018254 -0.312782,-1.5250324 -0.37713,-1.5250324 -0.01664,0 -0.414642,0.1052038 -0.884446,0.2337861 -0.939191,0.2570502 -1.921073,0.4997112 -2.745109,0.6784223 l -0.535334,0.1161 0.01878,0.202149 c 0.130194,1.401404 0.08546,2.96596 -0.120526,4.214985 -0.0091,0.05507 -0.0067,0.100129 0.0053,0.100129 0.01202,0 0.244867,-0.04949 0.517442,-0.109977 z M 13.34018,9.1941042 C 13.847191,9.1473927 14.945694,9.0029583 14.968666,8.979986 14.998311,8.9503409 14.673932,7.3130154 14.448061,6.3521961 14.173225,5.1830911 13.562133,2.9624422 13.491988,2.8779228 13.371807,2.7331133 11.023979,2.7132322 10.532284,2.8528605 c -0.02778,0.00789 -0.05731,0.04509 -0.06561,0.082668 C 10.458371,2.9731058 10.3539,3.3435173 10.234517,3.758665 9.8394562,5.1324628 9.5435193,6.3141578 9.2932187,7.5173299 9.1579366,8.1676187 9.0152448,8.9638971 9.0311467,8.9797987 c 0.044454,0.044454 1.7859403,0.2435085 2.3988923,0.2741968 0.396349,0.019844 1.379162,-0.010972 1.910141,-0.059891 z M 7.6258478,8.4184852 C 7.8691742,7.028795 8.3482469,4.9846875 8.777886,3.5029686 L 8.838628,3.2934854 8.771047,3.3139394 C 8.5892596,3.3689596 8.1363968,3.5704921 7.7484219,3.7690272 7.2500793,4.0240399 6.6375984,4.4211426 6.1849639,4.7826969 5.7812303,5.1051907 5.1064495,5.779647 4.7854601,6.1815287 4.312275,6.7739606 3.7079556,7.7476208 3.7944372,7.778233 c 0.3744639,0.1325512 3.5178209,0.9201067 3.7431516,0.9378319 0.021527,0.00169 0.056511,-0.1162592 0.088259,-0.2975797 z M 17.071746,8.5794026 C 17.981393,8.376272 19.906309,7.8841617 20.205563,7.778233 20.292202,7.7475648 19.689492,6.7747872 19.223114,6.1925546 18.89565,5.7837437 18.223485,5.1104562 17.823261,4.7903624 17.369583,4.4275169 16.740499,4.0185981 16.251605,3.7687499 15.863348,3.5703325 15.410164,3.3687851 15.228953,3.3139396 l -0.06758,-0.020454 0.06085,0.2094832 c 0.422781,1.4554369 0.910476,3.5365299 1.151928,4.9155166 0.02893,0.1652118 0.0572,0.3003851 0.06282,0.3003851 0.0056,0 0.291271,-0.06276 0.634777,-0.1394677 z"
     id="path862" />
</svg>
