<?xml version="1.0" encoding="UTF-8" standalone="no"?>
<!-- Created with Inkscape (http://www.inkscape.org/) -->

<svg
   version="1.1"
   width="13"
   height="13"
   viewBox="0 0 13 13"
   id="svg2"
   sodipodi:docname="4778C.svg"
   inkscape:version="1.1.2 (0a00cf5339, 2022-02-04)"
   xmlns:inkscape="http://www.inkscape.org/namespaces/inkscape"
   xmlns:sodipodi="http://sodipodi.sourceforge.net/DTD/sodipodi-0.dtd"
   xmlns="http://www.w3.org/2000/svg"
   xmlns:svg="http://www.w3.org/2000/svg"
   xmlns:rdf="http://www.w3.org/1999/02/22-rdf-syntax-ns#"
   xmlns:cc="http://creativecommons.org/ns#"
   xmlns:dc="http://purl.org/dc/elements/1.1/">
  <sodipodi:namedview
     id="namedview7"
     pagecolor="#ffffff"
     bordercolor="#666666"
     borderopacity="1.0"
     inkscape:pageshadow="2"
     inkscape:pageopacity="0.0"
     inkscape:pagecheckerboard="0"
     showgrid="false"
     inkscape:zoom="55.642857"
     inkscape:cx="6.9910141"
     inkscape:cy="7"
     inkscape:window-width="1920"
     inkscape:window-height="1011"
     inkscape:window-x="0"
     inkscape:window-y="0"
     inkscape:window-maximized="1"
     inkscape:current-layer="svg2"
     scale-x="15"
     units="px" />
  <metadata
     id="metadata8">
    <rdf:RDF>
      <cc:Work
         rdf:about="">
        <dc:format>image/svg+xml</dc:format>
        <dc:type
           rdf:resource="http://purl.org/dc/dcmitype/StillImage" />
      </cc:Work>
    </rdf:RDF>
  </metadata>
  <defs
     id="defs6" />
  <rect
     width="14"
     height="14"
     x="0"
     y="0"
     id="canvas"
     style="visibility:hidden;fill:none;stroke:none" />
  <path
     d="M 1.8571428,0 0,2.7857142 c 0,0.9675436 0.21378314,1.857143 1.625,1.857143 1.4112168,0 1.6220053,-0.9282841 1.625,-1.857143 L 4.4107142,0 Z M 5.5714286,0 4.875,2.7857142 c 0,0.9441188 0.147771,1.857143 1.625,1.857143 1.477229,0 1.6220768,-0.9502952 1.625,-1.857143 L 7.4285714,0 Z M 8.5892858,0 9.75,2.7857142 c 0,0.9497109 0.300765,1.857143 1.625,1.857143 1.324234,0 1.625,-0.9441384 1.625,-1.857143 L 11.142857,0 Z M 0.92857142,5.5714286 V 13 H 12.071429 V 5.5714286 Z M 3.7142858,7.4285714 h 5.5714284 c 0.5248956,0 0.9285718,0.4692879 0.9285718,0.9285714 V 10.214286 H 2.7857142 V 8.3571428 c 0,-0.5030247 0.4692881,-0.9285714 0.9285716,-0.9285714 z"
     id="kiosk"
     style="fill:#000000;fill-opacity:1;stroke:none;stroke-width:0.928572" />
</svg>
